name,age,country
Randell MacFadden,70,Russia
Glendon Rawood,24,Morocco
Desmond Siggs,30,Tunisia
Fawne Charon,34,Norway
Eloise Loughan,60,Indonesia
Wilton Harmon,25,Brazil
Jaime Pinson,69,Peru
Emilia Fullbrook,73,Angola
Tracee Elt,47,Canada
Ruby Torre,79,China
Jewel Ohlsen,52,China
Cecilius Offer,39,Indonesia
Marjy Gordon-Giles,66,China
Theodoric Brigstock,51,Peru
Ferrell Cinelli,34,Portugal
Starla Rolston,51,Tanzania
Madella Misk,48,Sweden
Maryanne Forrest,62,China
Bondy Okeshott,80,Thailand
Dore Collip,41,Ecuador
Alain Broz,36,Pakistan
Bendick Hissie,55,Philippines
Arnuad Bannister,24,South Korea
Fleur Proske,37,Poland
Georgiana Capelle,33,United States
Sean Rendall,57,Poland
Karola Abthorpe,45,Philippines
Waneta Tamplin,65,China
Terra Manktelow,48,Thailand
Binny Boscott,49,China
Una Yurygyn,53,Dominican Republic
Pennie Pomery,29,Brazil
Sid Davidou,39,United States
Amandy McCullagh,21,China
Fina Verzey,40,China
Angele Crichmer,68,Morocco
Gerri Filipovic,36,Argentina
Reggie Conklin,43,El Salvador
Mary McMurrugh,28,China
Jamaal Rudeforth,28,Ukraine
Josee McClune,64,Netherlands
Clive Viall,62,Poland
Vera Capron,38,South Sudan
Kimbra Farnes,64,Nicaragua
Dario Baldwin,65,Panama
Spense McCambridge,23,United States
Toby Bisacre,47,Palestinian Territory
Tull Vautre,42,Indonesia
Jaine Lau,26,Canada
Ambrosio O'Doohaine,29,Argentina
Latrena Caddell,79,Thailand
Kareem Poynter,24,Colombia
Federica Rother,32,Nicaragua
Lilli Dewberry,72,Russia
Reagan Ropkins,54,Colombia
Danie Minci,74,Indonesia
Herminia Fearick,34,Indonesia
Arielle Swannack,80,China
Katharyn Rossander,25,Russia
Alaster Buchanan,72,Zimbabwe
Cathyleen Batchelour,42,Thailand
Marwin Schowenburg,28,South Africa
Butch Benns,31,Poland
Agata Collimore,56,Czech Republic
Jaclyn Glencorse,59,Russia
Stillmann Standering,25,Indonesia
Ruperto Doughartie,62,France
Denice Munton,63,China
Brandi Russel,80,Vietnam
Forest Desvignes,62,Indonesia
Cyrus Ovendon,61,China
Gordan Snedker,79,Indonesia
Ludovika Cescon,65,Indonesia
Eada Quainton,34,China
Stearn Wackley,52,Sweden
Erwin Fullbrook,73,Guam
Zebadiah Hanaford,70,Democratic Republic of the Congo
Bethina Faithfull,47,Portugal
Pauli Arnli,77,China
Hilliary Kleisel,65,United States
Ben Nowaczyk,67,Japan
Almire Brighty,45,Philippines
Obidiah Cammidge,23,Montenegro
Geordie Kaesmans,48,China
Stinky Kegley,67,Philippines
Shay de Verson,32,Portugal
Emilia Goch,22,Russia
Vivyan Marsden,29,China
Terza Debling,40,Brazil
Bay Tythe,57,China
Ania Commin,45,Indonesia
Trudi Marcham,71,Philippines
Betty Baughan,30,Indonesia
Kirstin Waller-Bridge,48,Philippines
Dom McMonnies,36,Peru
Angy McDuall,64,Chile
Cody Ivushkin,69,Portugal
Aileen Barron,53,Albania
Lorrie Pacher,40,Pakistan
Glynda Tenney,54,Madagascar
Olympia Lelievre,38,Serbia
Elyssa Staniford,38,China
Alexandre Gerok,25,China
Marylinda Dorning,38,Morocco
Melantha Betts,62,Indonesia
Corrie Masser,39,South Africa
Brod Phateplace,65,Bulgaria
Everard O'Kinedy,49,Argentina
Basile McClunaghan,75,China
Corri Moggach,29,Russia
Noland Gresham,50,Kazakhstan
Corella Clewett,54,Suriname
Kym Fishenden,66,United States
Tabbitha Sloey,62,China
Josselyn Sidaway,56,Burkina Faso
Doloritas Drioli,23,Ukraine
Tamqrah Heggman,47,Honduras
Korie Lernihan,43,China
Beltran Habin,78,Portugal
Shayne McCorrie,33,Portugal
Ayn Alcide,73,Russia
Cherry Allcorn,27,Indonesia
Ettore Conen,75,Sweden
Dasie Saines,63,Nicaragua
Abbey Woollard,37,China
Eirena Vallantine,73,Portugal
Giacinta Bricket,72,Russia
Ursola Goves,61,Ukraine
Phylis Kibel,28,Canada
Rabi Keddie,26,Poland
Benedick Heaslip,68,Indonesia
Ula Morfett,44,Indonesia
Tully Dury,42,Sweden
Marietta Frazier,71,Russia
Stillmann Fenning,54,Ecuador
Merell Temby,45,Cyprus
Merill Laviss,34,Mongolia
Nettle Strand,24,Philippines
Lethia Greengrass,44,Indonesia
Peg Morrall,71,Indonesia
Malissa Luce,52,Indonesia
Vikki Pudney,26,Denmark
Ernesto Wethers,63,France
Annaliese Steels,34,Argentina
Jeannette Janak,32,South Africa
Trev Summerill,23,Macedonia
Merline Pexton,57,Russia
Dniren Coughtrey,49,Russia
Cyndi Warboy,46,Indonesia
Henderson Meecher,78,Japan
Aindrea McCabe,33,Japan
Bobbi Le Borgne,52,Vietnam
Nathanil McCandie,70,Indonesia
Jillane Wrettum,66,Azerbaijan
Piper Colliford,71,Kosovo
Rustie Ast,40,Libya
Marwin Goldby,63,China
Daphene Galea,45,Tanzania
Diane Pawlaczyk,26,Peru
Maje Coulston,43,China
Elisabet Darragh,29,Peru
Gloriana Clark,63,Sweden
Madelon Charlet,51,China
Patti Haveline,63,Zimbabwe
Kliment Granger,63,Sweden
Minnnie Ghiriardelli,46,China
Glenn Glasman,77,Kazakhstan
Benedicto Mildenhall,73,Russia
Clerc Gammidge,35,China
Morie Duddy,25,Russia
Tulley Pengelly,29,Portugal
Evin Tipper,23,Indonesia
Mirna Gronowe,28,Jordan
Marshal Emerson,43,China
Tommi Bursnall,71,Brazil
Alden Soonhouse,29,Cuba
Maryellen Whieldon,42,Russia
Gerta Spenclay,24,China
Juan Gumby,66,Pakistan
Jobi Semechik,70,Haiti
Quinlan Abell,29,Mexico
Arni Ginnelly,22,Kenya
Glyn Diperaus,77,Mexico
Kellina Farbrother,34,Portugal
Forbes Jubb,29,Bosnia and Herzegovina
Dru Ahmed,72,Czech Republic
Shawna Corker,71,Canada
Derward Canner,64,Portugal
Killian Gippes,68,China
Chas Belle,58,Portugal
Valenka Rawet,44,Canada
Brittaney Geane,39,Philippines
Effie Scothern,63,China
Gretel Lauret,23,Russia
Lonee Hegge,76,Ukraine
Tillie Mollen,43,China
Shanta O'Loughnan,65,Ukraine
Marlo Westfield,52,Indonesia
Beverly Mattheus,69,Venezuela
Udale Condon,79,Canada
Fairfax Spottiswoode,57,Ukraine
Willdon Vanichkov,42,Russia
Bidget Caldero,69,Brazil
Nalani Priestman,27,Brazil
Ambrosio Tillyer,78,Russia
Nikola Godart,74,Poland
Feliks Pasterfield,68,Japan
Sammie Browning,23,Poland
Pippo McLaughlin,76,Philippines
Lorain Portsmouth,62,Ivory Coast
Spense Trow,56,China
Erny Downer,73,Philippines
Riordan Whyard,20,Russia
Carlina Nassey,77,Peru
Elton Dornan,67,Russia
Glennie Edgcombe,36,France
Gavan Paskerful,63,China
Ermin Sergant,59,Russia
Kipper Lagden,71,China
Hermione Jerwood,45,Mexico
Danita Sorsby,30,Latvia
Gaultiero Roma,49,Egypt
Hedy Legging,79,Ukraine
Sauveur Milnes,68,Poland
Emmanuel Lucus,25,Poland
Twila Facer,49,Indonesia
Bette Apfel,75,Canada
Dorine Minnock,43,China
Trixie Keetley,66,Ecuador
Yancey Warnock,70,Brazil
Brigg Roke,59,Indonesia
Vania Glendinning,31,Vietnam
Rory Petersen,24,Finland
Andrus Elan,72,China
Beatriz Hryniewicz,22,Philippines
Culver Doe,29,Philippines
Kaleb MacDuff,70,China
Antonia Kindread,22,Japan
Peterus Jakeway,32,Indonesia
Sada Dargan,22,China
Dall Jefferies,75,France
Durward Haysar,42,China
Samaria Di Roberto,57,China
Early Whitchurch,44,Brazil
Marlane Lewton,37,Indonesia
Hyacinthia Yakebowitch,47,Sweden
Pen Aingell,41,Mongolia
Jessamyn Mead,68,Martinique
Albertine Posten,27,Indonesia
Lea Imore,76,Czech Republic
Nessi Eatherton,43,France
Andrew McKelvie,62,China
Shaun Shoute,32,Poland
Gloriane Yuryichev,42,Armenia
Natal Brunsden,46,Slovenia
Adrien Tinsey,70,Czech Republic
Kikelia Vase,45,Indonesia
Granger Skains,78,Ireland
Diann Seeley,70,China
Valera Ramsay,41,Indonesia
Garrik Duffer,73,Bulgaria
Nickie Mathevon,36,China
Ronny Di Ruggero,24,Nigeria
Patricio Haslock(e),40,Philippines
Jud Urien,35,Poland
Marleah Keneleyside,49,Indonesia
Carson Eley,24,Netherlands
Shayna Orrom,36,France
Hanan Pickburn,34,Spain
Thornie Gawne,27,Palestinian Territory
Sharyl Colebourn,55,Portugal
Audie Mc Carroll,56,Poland
Blanche Cabel,36,China
Davy Overton,32,Finland
Louella Whetnell,30,Indonesia
Fulvia O'Mullally,74,Ukraine
Nestor Hanhardt,27,China
Melesa Rowly,62,Libya
Maude Osborne,47,Argentina
Barnabas Flack,71,Venezuela
Waylen Bourke,38,Madagascar
Vikky Wrench,57,Tunisia
Tully Sandlin,39,Canada
Vito Ravenhills,23,Portugal
Dara Fidgett,54,France
Justinn Mellanby,75,Philippines
Justen Staining,69,China
Hetty Beavis,62,Nicaragua
Kora Slowly,47,Poland
Truda Fullerlove,74,Indonesia
Boot Edmonson,76,China
Caitlin Windeatt,49,Venezuela
Ferris Croxford,25,Czech Republic
Barnaby Waddell,30,Netherlands
Jeromy Fetherby,58,China
Sandi Giraldo,76,Benin
Wilfrid Pratten,52,China
Colleen Vernon,53,Yemen
Dorrie O' Clovan,22,Russia
Pacorro Hedditeh,31,Portugal
Winona Tran,43,Greece
Yvonne Bilsborrow,31,Indonesia
Jerrilyn Swendell,22,Argentina
Donovan Ilymanov,25,Japan
Aubree Allebone,24,Philippines
Fraser Ashley,64,Indonesia
Viviyan Quested,25,Japan
Dayle Matschoss,54,Canada
Jade Tall,53,Poland
Shannon Stanney,66,Sri Lanka
Allyson Couper,39,Germany
Ninnette Simukov,75,China
Orren Guidini,75,Netherlands
Karlene Rosenbarg,29,Poland
Juieta Menelaws,60,Poland
Ethelda Padley,23,China
Sadye Lotterington,44,Indonesia
Cristiano Coules,55,Indonesia
Ogdon Wayon,28,France
Noble Hewins,75,China
Yoko Heard,67,Philippines
Birgitta Caillou,33,Paraguay
Minor Greensite,62,South Africa
Lexie Aizik,59,Brazil
Jereme Beggin,68,Philippines
Emelyne Slay,67,Philippines
Audrie Krug,20,Nigeria
Candace Patriskson,24,Indonesia
Davin Dawnay,32,Philippines
Maurene Bahike,38,Indonesia
Colene Somerfield,77,China
Raynor Ionnidis,41,France
Wynn Attfield,55,Kyrgyzstan
Vinita Buxsy,76,Portugal
Harper Darton,35,China
Teador Lowery,63,Mongolia
Toby Larking,26,Indonesia
Flossy Sturm,74,China
Karrie Welford,63,Greece
Nolly Stannislawski,74,Indonesia
Sonya Iorizzi,23,China
Hewet Crinidge,29,Peru
Theadora Hewins,33,Peru
Iormina Dannel,77,South Korea
Renault Bourtoumieux,68,Portugal
Humbert Spurdon,61,Bhutan
Rakel Hardiman,54,Indonesia
Homerus Lutz,33,China
Janice Rockall,70,China
Lonny McLellan,20,Venezuela
Flossy Hammerton,33,Azerbaijan
Eustace Miklem,21,China
Rebbecca Abramow,34,China
Boothe Winterbourne,29,Portugal
Vincenz Mahomet,36,Greece
Kai Knoton,67,Canada
Care Pieterick,55,China
Cymbre Odgers,48,Costa Rica
Zea Carrel,65,China
Sandye Ever,60,Tanzania
Jordana Feuell,71,China
Maximilien Frobisher,21,Russia
Worth Youle,24,China
Maitilde Benduhn,75,Poland
Adolph Nulty,68,Indonesia
Greggory Pheasey,48,China
Nonah Wykey,77,China
Gaylene Sowerby,80,Colombia
Claudell Brockie,74,China
Gillan Stearley,55,Philippines
Mano Gyurko,53,Sweden
Esther Slewcock,53,Japan
Celle Pesak,48,China
Vincents Balfe,20,Russia
Ceciley Elfleet,46,Andorra
Leoline Antonov,80,China
Angelico Gordon,25,Brazil
Lorry Noah,54,United States
Pauly Cardnell,42,Colombia
Aura Lucia,33,China
Babara Fibbens,48,Armenia
Mei Aubri,62,Ukraine
Stevana Saggs,26,Philippines
Dorise Mustill,28,Russia
Cori Hindrich,77,Afghanistan
Jaine Kuhne,25,Pakistan
Alfonso MacKenzie,23,Brazil
Sissie Macconachy,51,Azerbaijan
Fidelio Khoter,48,Cuba
Shane Prettyman,25,Brazil
Truda Crewe,50,France
Kelly Stuchburie,77,China
Glynn Wedmore,47,Botswana
Dinah Boyse,52,China
Herold Jobin,80,China
Beale Sweetlove,30,China
Dudley Pracy,75,China
Corey Snowball,20,Bahrain
Biddie Kirimaa,68,Japan
August Cruces,59,Kyrgyzstan
Boone Minghetti,44,China
Forbes Minchin,30,Iraq
Denis Janik,46,China
Hinda MacBarron,23,Cyprus
Carly Drewery,51,Panama
Johnny Slobom,46,Philippines
Chrotoem Eykelbosch,38,Canada
Caren Heeps,79,Sweden
Tommie Bento,48,Sri Lanka
Meg Platfoot,62,Philippines
Rosalyn Rogier,29,United States
Johnathon Bouts,76,Indonesia
Ganny Haestier,69,Indonesia
Ingrim Landman,78,Philippines
Von Simonassi,57,Argentina
Margalo Bertelmot,61,Sweden
Jillie Coop,47,Czech Republic
Myca Battin,37,Palestinian Territory
Jerrie Lamboll,48,France
Giacomo Merlin,44,Peru
Micky Stirzaker,59,Philippines
Cindi Ramel,70,Russia
Van Sekulla,35,Philippines
Jasmina Dalman,40,Botswana
Darline Lowder,24,Russia
Eldin Grzegorzewicz,35,Netherlands
Cosme Jephcott,65,Denmark
Anne-corinne Decourt,47,United States
Myrna Penson,77,China
Modesta Cristofanini,25,Guatemala
Heall Osgar,56,China
Geri Borgars,26,Indonesia
Abie Henner,22,Bulgaria
Torrence Aubery,37,Colombia
Lenka Treece,73,China
Morgen Ogley,72,Russia
Lucian Gait,48,China
Timofei Dando,79,Brazil
Kipper Trembley,56,Indonesia
Wye Flaonier,58,Indonesia
Terry Algar,44,Peru
Nels Hayle,78,French Guiana
Erin Kynder,76,Syria
Leta Warsop,44,Portugal
Jobie Worham,41,Colombia
Conroy Etchingham,68,China
Dov Oldroyde,60,South Korea
Claudelle Willgrass,72,China
Doug Bierling,26,China
Abeu Virr,29,Finland
Coraline McJury,62,Mexico
Gerta Laval,40,Indonesia
Marlow Sturror,21,Finland
Clementine Liveing,46,Philippines
Mendie Potell,68,Indonesia
Alta Mutter,29,Indonesia
Bibby Karoly,35,China
Bili Halden,34,Indonesia
Ilse Maplethorpe,25,Poland
Etti Ottam,37,Spain
Codie Hallad,41,Monaco
Wes Haley,32,Latvia
Querida Cona,59,Russia
Vernon Lownsbrough,43,Finland
Merlina Mc Andrew,66,Brazil
Hartwell Faires,56,South Africa
Maurits Costigan,63,Japan
Antin Weekly,22,China
Broddy Giannasi,55,China
Petronella Petherick,37,Brazil
Roarke Barrett,54,Indonesia
Nicky Franceschino,44,Gambia
Artus Solman,68,China
Patrice McGready,22,Indonesia
Ursola Shelsher,74,China
Ebeneser Fortin,36,Indonesia
Ingaberg Langtree,44,Iran
Amberly Sloane,31,Indonesia
Olenka Poltun,26,Central African Republic
Albrecht Askie,71,China
Gabriele O'Cleary,35,Argentina
Seth Gilchriest,80,Slovenia
Lil Yonnie,55,China
Marjory Fewster,22,Micronesia
Julee Joice,59,Russia
Lurline Tinan,31,China
Sherwin Sibbs,34,Poland
Aloisia McCafferty,73,China
Allie Filoniere,35,Botswana
Hammad Carrier,63,Indonesia
Amber Yacobsohn,34,Indonesia
Gregory Edgecumbe,33,China
Torrence Batho,53,Czech Republic
Lemuel Bemlott,78,Ukraine
Gretna Ziehms,55,Canada
Lucina Tohill,22,Indonesia
Gisela Heinreich,33,Indonesia
Carlina Juckes,76,Philippines
Lonna Pearsey,23,Canada
Tova O' Culligan,40,South Korea
Elisha Chrismas,71,China
Freddie Gatch,75,Indonesia
Nanette Dubois,53,China
Hobart Probert,78,China
Hanni Pumfrett,54,Croatia
Bibi Smalcombe,77,China
Ursulina Vennings,62,Czech Republic
Garvy Camelli,47,Sweden
Jon Blowfield,45,Portugal
Nicol Millsom,64,Uruguay
Mignonne Swapp,50,Argentina
Khalil O'Criane,39,Indonesia
Katina Quinnell,22,France
Cory Bohike,69,Colombia
Cissy Haverty,49,Poland
Vitoria Warsap,52,Argentina
Aloysius Woolrich,66,Mexico
Jeno Bugs,65,Jordan
Emogene Lethabridge,28,Indonesia
Pepita Geerling,59,Mexico
Giovanni Ventura,80,Australia
Tamera Ysson,26,Sweden
Kaine Lightoller,27,Malaysia
Alano Evanson,28,Philippines
Phebe Rosser,29,Togo
Lori Gabel,80,China
Agnese Banford,62,China
Leonie Spancock,45,Brazil
Kizzee Ricker,63,Poland
Carlynne Worsam,51,Czech Republic
Melodie Powers,76,United States
Haley Trehearn,70,Poland
Lurleen Estable,68,Indonesia
Noelyn Antonias,23,Philippines
Glennie Dradey,52,Indonesia
Bentlee Secret,23,Indonesia
Huey Merrgan,74,Costa Rica
Melony Standfield,39,El Salvador
Minda McOnie,41,Bolivia
Benny McCrackem,76,China
Dawna Lanchberry,51,China
Katalin Mounter,63,Indonesia
Noel MacAnespie,30,Canada
Siffre Mattaus,52,Portugal
Wildon Dell,42,Uzbekistan
Dalston Maber,80,China
Sue Clausner,73,Indonesia
Brigitte Arnaldy,56,Thailand
Marya Astbery,55,Colombia
Brittany Keggins,78,Russia
Ophelia Butchard,33,Poland
Gard McClifferty,75,Portugal
Fran Duncombe,40,China
Thain Pinchon,50,Kazakhstan
Culver Dyer,27,China
Gustavo Giacopini,40,Madagascar
Saloma Tyer,23,Russia
Saidee Butchers,21,Netherlands
Teodora Tuckie,63,Indonesia
Thom Malsher,60,Albania
Oneida Tudbald,40,China
Kimball Qualtro,66,Japan
Austin Coste,30,Bangladesh
Alexander Mayoh,25,Colombia
Fey Strain,58,Ecuador
Keeley Lautie,35,United States
Gerda Yerby,59,Indonesia
Morissa Fresson,76,China
Paul Biles,42,Canada
Madelyn Ingleton,77,Russia
Alysia Henri,68,Portugal
Elspeth Leyburn,66,Kazakhstan
Bobbye Pavett,54,Croatia
Donni Hawk,47,China
Opalina McCard,57,Indonesia
Danya Biskupski,73,Greece
Winny Cossentine,21,Philippines
Llywellyn Underdown,29,Colombia
Celene Rouby,64,Brazil
Aldridge Brearton,74,China
Sidnee Stendell,45,Greece
Gwenni Roache,42,Nigeria
Corrianne Eltone,57,Panama
Sari Kaley,26,Indonesia
Marrissa Bryce,26,Philippines
Nickie Warman,43,Nigeria
Webb Eitter,38,Spain
Jonathan Eede,31,Indonesia
Alano Cottle,36,Ukraine
Reinaldo Leidecker,67,Argentina
Felicle Rieme,58,China
Jock Brobak,24,Argentina
Laurie Undy,30,Portugal
Morganne Llorente,39,Sweden
Suzette Thewys,72,Vietnam
Eran Spilstead,46,Germany
Kessiah McCarter,44,Thailand
Karalynn Klaff,69,Portugal
Nichol O'Rourke,79,France
Viviyan Gaskamp,33,Indonesia
Borg Yashnov,43,Mexico
Albrecht Yokley,61,Indonesia
Suzann Mandrake,41,Russia
Shermy Giffard,40,Sweden
Billy Minico,60,Mongolia
Allis Craxford,34,Croatia
Gilbert Mishow,75,China
Conni Seiler,21,Greece
Park Le Noire,68,Greece
Derick Antoshin,27,Canada
Carla MacCracken,58,Senegal
Georgena Ginie,25,Brazil
Clint Francklin,80,Japan
Sherm Mawditt,27,Serbia
Nikki Milward,61,Serbia
Jacquie Rilston,30,Uganda
Chaddie Amsberger,26,Philippines
Udale Skelly,71,Portugal
Terza Dwyer,37,Thailand
Marion Brownsworth,25,China
Maynard Breckell,55,Afghanistan
Samaria Bidewel,63,Thailand
Darice Youthed,68,Bangladesh
Bekki Marcham,29,Indonesia
Ezri Morford,38,China
Marcelia McGavigan,79,Philippines
Moishe Kynastone,69,China
Patrick Follitt,70,Colombia
Camala Crasford,40,China
Berenice Gumly,75,Canada
Zarah Crothers,65,Philippines
Linnea Finlater,31,Vietnam
Bridgette Simonnin,32,Benin
Jannelle Freckleton,34,Ukraine
Nari Nyland,72,Russia
Baily Breache,27,China
Whitby Howorth,44,Sweden
Olivette Hasley,68,Indonesia
Brigitte Jaqueminet,31,Brazil
Candace McAuslene,41,Bahamas
Ede Van der Brug,63,Chile
Bryan Trimby,21,China
Urbano Pruckner,38,Portugal
Hazel Lias,71,China
Danita Paddefield,59,Czech Republic
Corey Kezor,64,Russia
Brandy Iorizzi,27,Vietnam
Roseline Pund,60,New Zealand
Durante Duke,20,United States
Callie Trewhella,40,Azerbaijan
Malissia Keam,30,China
Kenon Poveleye,59,Peru
Jackqueline Bolus,61,China
Persis Wharf,44,Indonesia
Carlotta Beggs,26,China
Carla Palleske,60,Ukraine
Starr Riggott,38,Poland
Ashly Rollings,52,China
Rodi Matitiaho,44,Thailand
Waverley Gredden,26,China
Leonid Wingeat,53,Poland
Stormi Ding,44,China
Wilhelmine Pasquale,49,Croatia
Millard Durrant,35,Albania
Laurena Goldstein,73,Indonesia
Krystle Garrold,22,Norway
Jillana Filasov,63,Russia
Connie Nutt,22,Bulgaria
Jeremiah Gerhartz,79,United States
Malchy Reardon,46,Czech Republic
Tallie Constance,31,Nigeria
Everard Himpson,28,Greece
Sean McAteer,43,Thailand
Tabitha Sapena,44,United States
Devondra Teaser,51,Russia
Monah Haw,46,Nigeria
Farr Pattlel,36,Zimbabwe
Clotilda Peotz,64,Gabon
Ann-marie Triggs,61,Poland
Neils Comi,28,Indonesia
Jamaal Roarty,30,Tunisia
Denver Pirdy,56,China
Theodosia Klaff,22,Portugal
Francklyn Legging,76,Greece
Colet McNab,80,China
Daniela Hessle,56,Russia
Babbette Walstow,25,Canada
Nick Size,25,China
Agretha Fleetwood,57,Sweden
Herve Pashenkov,56,United States
Reynolds Bartolic,44,Cameroon
Cairistiona Jerman,77,China
Gerrie Wetton,52,Croatia
Kurtis Iacovuzzi,29,Portugal
Jerrie Knoles,44,Portugal
Shelli Mannooch,46,Azerbaijan
Emlyn Farrant,73,Vietnam
Chris Eisikovitsh,44,Portugal
Penelopa Zammett,79,China
Jamill Norwell,24,Sweden
Gibby Goodoune,43,Tunisia
Dorian Maidlow,60,Venezuela
Lorri McSperron,73,China
Alex Deniscke,71,United States
Jennilee McConaghy,66,Niger
Jesselyn Smithin,72,China
Germana Merali,39,Azerbaijan
Goddard Ketts,32,Canada
Clarence Gidden,54,Kenya
Malachi Shakle,39,Tanzania
Laurie Hayzer,38,Sweden
Meris De Hooch,71,Dominican Republic
Quincey Cannavan,47,Mongolia
Andeee Kiezler,39,Georgia
Raquela Miskin,60,Indonesia
Kaiser Lodge,59,Indonesia
Janelle Hovert,64,Sweden
Alexandro Glasson,22,Philippines
Cross L'Homme,52,Russia
Alysa Boullen,32,Indonesia
Brewer Forrester,63,Honduras
Hans Astlett,46,Russia
Dorine Hassent,62,Poland
Rivalee Baden,58,Indonesia
Bernette Ripper,37,Russia
Mahmud Di Bernardo,58,Indonesia
Gav Fearon,71,Brazil
Gloriana Stairmond,50,Armenia
Kissee McCrudden,75,Indonesia
Lanie Michiel,67,Peru
Eduardo Pedro,61,Portugal
Clarey Chesnay,70,Denmark
Ker Lakin,66,China
Charlie Hilhouse,75,China
Alphonso Legister,36,Sweden
Moria Menezes,24,Mongolia
Matilde Kruse,36,Armenia
Lauretta Mitham,23,New Zealand
Lora MacKissack,40,France
Reid De'Vere - Hunt,27,China
Taffy Sheffield,70,Brazil
Anitra Delacourt,63,Indonesia
Skipp Peete,63,China
Jerrylee Masding,76,China
Lian Walkingshaw,28,Yemen
Gunner Walters,70,Philippines
Lira Baggarley,25,Poland
Gabi Gosnay,61,Indonesia
Fernando Findlater,79,South Africa
Lindy Camamile,79,Russia
Mercie Dickinson,65,Philippines
Lisette Belverstone,70,Portugal
Nadiya Jacquemet,25,Indonesia
Pattie Glazzard,35,Canada
Anne-marie Aylin,71,China
Tova D'Adda,31,Sweden
Jewel Catherall,58,China
Christalle Andreolli,71,Ukraine
Lombard Duckit,27,Indonesia
Robinson Crucetti,20,Sweden
Gunter Charlewood,72,Costa Rica
Emmie Byrom,62,France
Cairistiona Mayes,23,Russia
Gerrilee Hasluck,61,Brazil
Tilly Caff,59,China
Willis Ilem,37,Russia
Murry O'Lyhane,30,Russia
Enrico Giabucci,52,Sweden
Joanie Librey,23,Sweden
Debbi Aldins,78,Uganda
Ysabel Amori,37,United States
Emmaline Haddeston,23,Brazil
Flora Restall,55,Portugal
Jarrett Crohan,54,China
Isaak Bessom,76,Slovenia
Bridget Paulisch,21,Indonesia
Robbie Allington,45,Russia
Giselbert Dommerque,64,Portugal
Carmon Pinchbeck,27,Czech Republic
Delbert Strevens,36,Greece
Christoph Stokes,68,Sweden
Rose Pentlow,20,Ukraine
Jarvis Blaschek,67,Philippines
Maren Quick,73,Russia
Currey Dursley,73,France
Shoshanna Lorens,48,Ethiopia
Con Headon,66,Morocco
Ellery Tankard,48,Czech Republic
Phillie Madre,67,France
Pennie Gergher,36,China
Morty Truckell,40,Sweden
Thadeus Wallsworth,52,Russia
Dominic Maciaszczyk,42,Dominican Republic
Arney Hamman,46,China
Marco Bane,76,Kazakhstan
Alis Shutt,75,Argentina
Itch Renackowna,74,Peru
Othilie Keneforde,64,China
Keenan Stallworth,66,France
Karna Mitkin,80,France
Shelley Siney,62,China
Rosalinda Jindracek,27,United States
Rafaello Tollit,73,Thailand
Dieter Moralis,24,Honduras
Louisa Pohlke,22,France
Reine Mulmuray,50,Portugal
Arnoldo Pfeuffer,69,France
Orly Robins,65,China
Lorry Darinton,57,Indonesia
Catlee Nussen,27,Argentina
Mano Hefforde,42,Russia
Fey Hazelgrove,50,United States
Jacynth Sutherel,21,Indonesia
Mehetabel Bousler,30,Finland
Elset Gammons,35,Indonesia
Tildy Nolton,53,Argentina
Cristal Bragge,60,China
Vaclav Hacun,22,Philippines
Fania Faier,76,China
Bobinette Hewlings,78,Honduras
Berry Venour,75,Czech Republic
Domenic Hallad,64,Kazakhstan
Daphna Storms,65,Peru
Jarret Keary,74,Poland
Colin Constance,59,China
Wyn Healings,47,Philippines
Sonia Brownell,26,France
Regan Sprigg,63,Indonesia
Karla Bohike,79,Russia
Ali Vedishchev,63,Guatemala
Bealle Fisby,34,United States
Arabele Pristnor,21,Democratic Republic of the Congo
Elwin Crimin,80,Germany
Skippy Crafts,53,Tanzania
Merrielle Franciskiewicz,57,Poland
Gaylor MacMechan,32,France
Willette Mutlow,76,China
Fay Pollok,57,Indonesia
Brendin Sprackling,52,Norway
Merwyn Nutley,57,Czech Republic
Mirabelle Kubiak,41,France
Donia Josh,55,Argentina
Nadia Garken,38,Mexico
Harrietta Sleightholm,29,Russia
Tonie Rennebeck,70,China
Feodor Rubinfajn,32,Indonesia
Roman Millions,54,China
Elwin Humbatch,44,Philippines
Fidela Mawne,21,Thailand
Rowen Millyard,60,Mexico
Stanislaw Stroban,43,Bosnia and Herzegovina
Haydon Myerscough,40,China
Loise Skipsea,28,Indonesia
Annmarie Barley,68,Paraguay
Suzy Coiley,28,China
Sonnnie Dudson,70,Poland
Othelia Brouncker,28,Indonesia
Ilka Roj,32,China
Leyla Ullett,51,Peru
Garrard Thornebarrow,62,China
Corinne Whilder,73,Peru
Filberto Sellek,20,Croatia
Chevy Cowl,27,Canada
Thomasin Ferryn,22,China
Jorry Pollastrone,43,Thailand
Dorothy Tomkins,68,Indonesia
Rafe Tomasino,69,Sweden
Estella Woodroofe,76,Poland
Elicia Rentoll,71,Poland
Miles Bloyes,57,Indonesia
Della Durban,59,China
Kort Tomley,74,South Korea
Dee dee Blaxlande,48,Japan
Fania Roos,40,Italy
Jo ann Kilgrove,62,Czech Republic
Elwira Moscrop,33,Malaysia
Donalt Eastbury,56,Czech Republic
Gregoor Wickardt,39,Mexico
Kale Streater,79,Cameroon
Bea Brine,24,Canada
Lenci Van der Beek,79,Italy
Renate Enrico,44,China
Sherwood Bizzey,39,Haiti
Briny Dudeney,66,Czech Republic
Hewie Geelan,31,Argentina
Esta Canete,24,China
Catriona MacGille,40,United States
Gregorio Giovani,44,China
Ray Spearman,64,China
Arnoldo Stanaway,51,Portugal
Sasha Toffetto,71,Mauritius
Anthea Cutmore,40,United States
Martainn Filippello,63,Sweden
Cammy Cunah,56,Philippines
Stanislaw Muino,74,Russia
Lawrence Ashtonhurst,30,China
Jessica Kerridge,37,Indonesia
Felizio Goodridge,65,Poland
Haywood Overthrow,23,Brazil
Jennie Birkbeck,30,Brazil
Sheff Loomis,29,Estonia
Elise Sackler,57,Poland
Desiree Janko,60,Ukraine
Sean Fidell,23,Philippines
Franciska Charlotte,75,Portugal
Dru Asplin,71,Sweden
Frederica Pitway,43,Estonia
Aldin Spicer,56,Indonesia
Raynard Cherm,67,China
Jessey Prynne,74,Morocco
Clemence Selland,42,China
Allix Strank,64,Venezuela
Matias Hammerson,75,United States
Orv Betke,48,Poland
Weidar Dunmore,78,China
Yancey Pimmocke,71,Peru
Errick Tottman,80,Philippines
Blanca Jeanesson,32,China
Rene Gleadhall,64,United States
Catlaina Dove,36,China
Trudey Sam,68,Kazakhstan
Ganny Ware,38,Philippines
Basil Somerscales,67,China
Selina Treuge,76,Indonesia
Falito Snalham,59,China
Milly Cordall,53,United States
Jamil Obal,42,Poland
Loreen Rennock,30,Philippines
Delmor Melladew,54,Bahamas
Zaria Camber,68,Colombia
Idalia Whitehorne,66,Curacao
Darryl Simons,53,Colombia
Rae Knights,71,Indonesia
Lancelot Gorick,32,France
Giorgia Collington,57,Republic of the Congo
Johnath Jannasch,65,China
Legra Apperley,52,Sweden
Dionisio Grouer,49,Argentina
Aloysia McGuggy,61,Sweden
Calypso Dowse,70,Philippines
Johan Hackworth,39,Sweden
Letizia Hawyes,50,Indonesia
Even Wildash,68,China
Che Fradgley,44,China
Jerrie Kennewell,69,China
Bart McGing,68,Madagascar
Gena Jentzsch,57,Syria
Larry Pidgeon,23,Thailand
Pepe Torr,79,China
Fairleigh Kiehl,64,Philippines
Bess Melding,39,Argentina
Nanci Trevarthen,44,Bangladesh
Virge Howatt,65,Uganda
Prudi Leyrroyd,74,Poland
Camila Bockett,24,Indonesia
Phyllys Streather,37,China
Halsy Fromont,37,Botswana
Eolanda Colkett,78,Russia
Dael O' Bee,43,Tunisia
Rutledge Molnar,79,China
Suzie Hekkert,58,China
Jeanna Johnys,68,Laos
Skelly Horley,24,Indonesia
Marice Silverston,71,China
Bertina Croasdale,43,Cuba
Orren Eliassen,47,Ukraine
Salmon Raun,78,Indonesia
Merlina Hartwell,71,China
Brant Dooher,74,Ukraine
Anjela Rens,41,Iran
Morgana Chetwin,54,Vietnam
Barri Pawelski,37,China
Cooper Manes,30,Russia
Zonda Thirlwall,35,Paraguay
Bennie Pabst,22,Argentina
Conroy Clare,30,Indonesia
Merrill Sylvaine,45,France
Mayer Rassmann,43,China
Harrison Dufoure,49,Philippines
Bethena Crollman,64,Indonesia
Phillis Linster,48,Brazil
Bethena Heinecke,21,Peru
Pamela Andriessen,51,China
Vivie Mather,27,Indonesia
Lonnard McNay,59,China
Eydie Millhouse,49,Portugal
Florinda Shilburne,79,Indonesia
Stacie Dawid,21,Indonesia
Amaleta Maffini,42,Sri Lanka
Hildegaard Ulyet,25,Honduras
Perla Dudney,30,China
Yvon Collimore,33,Tanzania
Eleanore Giraudoux,67,Guatemala
Josias Springate,30,China
Albertine Basilio,34,Indonesia
Jecho Constantine,29,Indonesia
Christye Bemwell,63,Argentina
Augie Garriock,77,Sweden
Norah Magnus,28,Belarus
Priscilla Hourihan,63,Indonesia
