name,age,country
Lucky Conry,57,France
Gwenneth Melbert,27,Canada
Mersey Kerbler,61,Belarus
Paulita Cloney,54,Greece
Anna Conda,23,Sweden
Per Silja,43,Sweden
Dilly Rosewall,72,Brazil
Evanne Arendt,37,China
Elladine Ashdown,61,France
Justina Ackers,50,New Caledonia
Rik Turneux,30,Japan

